"Vehicle not found","PTQ866","Opolinto Jr., Delfin Arce","","Replace clutch lining, pressure plate, release bearing and pilot bearing","10600","","","",""
"Vehicle not found","PTQ866","Opolinto Jr., Delfin Arce","","Replacment of battery","4070","","","",""
"Vehicle not found","PTQ866","Opolinto Jr., Delfin Arce","","AC repair","6470","","","",""
"Vehicle not found","PTQ866","Opolinto Jr., Delfin Arce","","Change oil, service brakes","2950","","","",""
"Vehicle not found","PTQ866","Opolinto Jr., Delfin Arce","","Replace 2 tires with Yokohama 8 ply 185R14","9163","","","",""
"Vehicle not found","PTQ866","Opolinto Jr., Delfin Arce","","replacement of 2 tires with yokohama","8803","","MOTECH","",""
"Vehicle not found","PTQ866","Opolinto Jr., Delfin Arce","","Change oil","2580","","MOTECH","",""
"Vehicle not found","PTQ866","Opolinto Jr., Delfin Arce","","110T PMS - CHANGE OIL, OIL FILTER,REPLACE LINK SHAFT UPPER, LOWER BALL JOINT,2 PCS HEADLIGHT BULB, 2 PCS 185 R14 YOKOHAMA,1 PC 3SMF MEGA FORCE","21676.25 (21742.25)","","MOTECH","",""
"Vehicle not found","PTQ866","Opolinto Jr., Delfin Arce","","REPLACE 1 SET BRAKE PADS, 2 CENTER POST BUSHING, 2 IDLER BUSHING","4160","","MOTECH","",""
"Vehicle not found","PTQ866","Opolinto Jr., Delfin Arce","","REPLACE TIMING BELT,BALANCER BELT,TENSIONER BEARING,BALANCER BEARING,OIL PUMP,CRANKSHAFT OIL SEAL,VALVE COVER GASKET,OVERHAUL CALIPER,REPLACE BRAKE PADS,BRAKE SHOE","2820","2820","MOTECH","24525",""
"Vehicle not found","PTQ866","Opolinto Jr., Delfin Arce","04/03/17","2 TIRES YOKOHAMA Y365 185 R14, MOUNTING AND BALANCING","8653","8653","MOTECH","27193",""
"Vehicle not found","PTQ866","Opolinto Jr., Delfin Arce","04/03/17","REPLACE CENTER POST ASSEMBLY,IDLER ARM BUSHING,TIE ROD END,FRONT SIGNAL LIGHT,WHEEL BALANCE AND ALIGNMENT. 1 3SMF BATTERY HYUNDAI ENERCELL MF","14732","14732","MOTECH","26208",""
"Vehicle not found","PTQ866","Opolinto Jr., Delfin Arce","-","2 YOKOHAMA TIRES 185/R14, WITH MOUNTING AND BALANCING","8653","8653","MOTECH","8653",""
"Vehicle not found","PTQ866","Opolinto Jr., Delfin Arce","-","175T KM CHECKUP - CHANGE OIL AND OIL FILTER,FLUSHING,REPLACE BELL CRANK,IDLER BUSHING,ALTERNATOR/AC/PS BELT,LINK SHAFT, ADJUST BRAKES, ALIGNMENT","9750","9750","MOTECH","35994",""
"Vehicle not found","PTQ866","Opolinto Jr., Delfin Arce","","OVERHAUL BRAKE CALIPER FRT,REPACK WHEEL BEARING FRT","3845","3845","MOTECH","22943",""
"Vehicle not found","PTQ866","Opolinto Jr., Delfin Arce","","","7800","","","",""
"Vehicle not found","PTQ866","Opolinto Jr., Delfin Arce","6/14/2016","FULLDOWN TRANSMISSION, REPLACE PILOT BEARING, REPLACE CLUTCH LINING, REPLACE PRESSURE PLATE, CLUTCH PORK, AND CHARGE OIL","11740","11740","MOTECH","",""
"Vehicle not found","PTQ866","Opolinto Jr., Delfin Arce","6/14/2016","REPLACE TIMING BELT, BALANCER BELT, TENSIONER BEARING","13860","13860","MOTECH","",""
"Vehicle not found","PTQ866","Opolinto Jr., Delfin Arce","7/20/2016","BATTERY REPLACEMENT 4SMF MOTOLITE ENDURO / 1 AIR FILTER / RADIATOR CAP / AUTO BULB","5980","5980","MOTECH","",""
"Vehicle not found","PTQ866","Opolinto Jr., Delfin Arce","","Replace clutch lining, pressure plate, release bearing and pilot bearing","10600","","","",""
"Vehicle not found","PTQ866","Opolinto Jr., Delfin Arce","","Replacment of battery","4070","","","",""
"Vehicle not found","PTQ866","Opolinto Jr., Delfin Arce","","AC repair","6470","","","",""
"Vehicle not found","PTQ866","Opolinto Jr., Delfin Arce","","Change oil, service brakes","2950","","","",""
"Vehicle not found","PTQ866","Opolinto Jr., Delfin Arce","","Replace 2 tires with Yokohama 8 ply 185R14","9163","","","",""
"Vehicle not found","PTQ866","Opolinto Jr., Delfin Arce","","replacement of 2 tires with yokohama","8803","","MOTECH","",""
"Vehicle not found","PTQ866","Opolinto Jr., Delfin Arce","","Change oil","2580","","MOTECH","",""
"Vehicle not found","PTQ866","Opolinto Jr., Delfin Arce","","110T PMS - CHANGE OIL, OIL FILTER,REPLACE LINK SHAFT UPPER, LOWER BALL JOINT,2 PCS HEADLIGHT BULB, 2 PCS 185 R14 YOKOHAMA,1 PC 3SMF MEGA FORCE","21676.25 (21742.25)","","MOTECH","",""
"Vehicle not found","PTQ866","Opolinto Jr., Delfin Arce","","REPLACE 1 SET BRAKE PADS, 2 CENTER POST BUSHING, 2 IDLER BUSHING","4160","","MOTECH","",""
"Vehicle not found","PTQ866","Opolinto Jr., Delfin Arce","","REPLACE TIMING BELT,BALANCER BELT,TENSIONER BEARING,BALANCER BEARING,OIL PUMP,CRANKSHAFT OIL SEAL,VALVE COVER GASKET,OVERHAUL CALIPER,REPLACE BRAKE PADS,BRAKE SHOE","2820","2820","MOTECH","24525",""
"Vehicle not found","PTQ866","Opolinto Jr., Delfin Arce","04/03/17","2 TIRES YOKOHAMA Y365 185 R14, MOUNTING AND BALANCING","8653","8653","MOTECH","27193",""
"Vehicle not found","PTQ866","Opolinto Jr., Delfin Arce","04/03/17","REPLACE CENTER POST ASSEMBLY,IDLER ARM BUSHING,TIE ROD END,FRONT SIGNAL LIGHT,WHEEL BALANCE AND ALIGNMENT. 1 3SMF BATTERY HYUNDAI ENERCELL MF","14732","14732","MOTECH","26208",""
"Vehicle not found","PTQ866","Opolinto Jr., Delfin Arce","-","2 YOKOHAMA TIRES 185/R14, WITH MOUNTING AND BALANCING","8653","8653","MOTECH","8653",""
"Vehicle not found","PTQ866","Opolinto Jr., Delfin Arce","-","175T KM CHECKUP - CHANGE OIL AND OIL FILTER,FLUSHING,REPLACE BELL CRANK,IDLER BUSHING,ALTERNATOR/AC/PS BELT,LINK SHAFT, ADJUST BRAKES, ALIGNMENT","9750","9750","MOTECH","35994",""
"Vehicle not found","PTQ866","Opolinto Jr., Delfin Arce","","OVERHAUL BRAKE CALIPER FRT,REPACK WHEEL BEARING FRT","3845","3845","MOTECH","22943",""
"Vehicle not found","PTQ866","Opolinto Jr., Delfin Arce","","","7800","","","",""
"Vehicle not found","PTQ866","Opolinto Jr., Delfin Arce","6/14/2016","FULLDOWN TRANSMISSION, REPLACE PILOT BEARING, REPLACE CLUTCH LINING, REPLACE PRESSURE PLATE, CLUTCH PORK, AND CHARGE OIL","11740","11740","MOTECH","",""
"Vehicle not found","PTQ866","Opolinto Jr., Delfin Arce","6/14/2016","REPLACE TIMING BELT, BALANCER BELT, TENSIONER BEARING","13860","13860","MOTECH","",""
"Vehicle not found","PTQ866","Opolinto Jr., Delfin Arce","7/20/2016","BATTERY REPLACEMENT 4SMF MOTOLITE ENDURO / 1 AIR FILTER / RADIATOR CAP / AUTO BULB","5980","5980","MOTECH","",""
"Vehicle not found","PTQ866","Opolinto Jr., Delfin Arce","","Replace clutch lining, pressure plate, release bearing and pilot bearing","10600","","","",""
"Vehicle not found","PTQ866","Opolinto Jr., Delfin Arce","","Replacment of battery","4070","","","",""
"Vehicle not found","PTQ866","Opolinto Jr., Delfin Arce","","AC repair","6470","","","",""
"Vehicle not found","PTQ866","Opolinto Jr., Delfin Arce","","Change oil, service brakes","2950","","","",""
"Vehicle not found","PTQ866","Opolinto Jr., Delfin Arce","","Replace 2 tires with Yokohama 8 ply 185R14","9163","","","",""
"Vehicle not found","PTQ866","Opolinto Jr., Delfin Arce","","replacement of 2 tires with yokohama","8803","","MOTECH","",""
"Vehicle not found","PTQ866","Opolinto Jr., Delfin Arce","","Change oil","2580","","MOTECH","",""
"Vehicle not found","PTQ866","Opolinto Jr., Delfin Arce","","110T PMS - CHANGE OIL, OIL FILTER,REPLACE LINK SHAFT UPPER, LOWER BALL JOINT,2 PCS HEADLIGHT BULB, 2 PCS 185 R14 YOKOHAMA,1 PC 3SMF MEGA FORCE","21676.25 (21742.25)","","MOTECH","",""
"Vehicle not found","PTQ866","Opolinto Jr., Delfin Arce","","REPLACE 1 SET BRAKE PADS, 2 CENTER POST BUSHING, 2 IDLER BUSHING","4160","","MOTECH","",""
"Vehicle not found","PTQ866","Opolinto Jr., Delfin Arce","","REPLACE TIMING BELT,BALANCER BELT,TENSIONER BEARING,BALANCER BEARING,OIL PUMP,CRANKSHAFT OIL SEAL,VALVE COVER GASKET,OVERHAUL CALIPER,REPLACE BRAKE PADS,BRAKE SHOE","2820","2820","MOTECH","24525",""
"Vehicle not found","PTQ866","Opolinto Jr., Delfin Arce","04/03/17","2 TIRES YOKOHAMA Y365 185 R14, MOUNTING AND BALANCING","8653","8653","MOTECH","27193",""
"Vehicle not found","PTQ866","Opolinto Jr., Delfin Arce","04/03/17","REPLACE CENTER POST ASSEMBLY,IDLER ARM BUSHING,TIE ROD END,FRONT SIGNAL LIGHT,WHEEL BALANCE AND ALIGNMENT. 1 3SMF BATTERY HYUNDAI ENERCELL MF","14732","14732","MOTECH","26208",""
"Vehicle not found","PTQ866","Opolinto Jr., Delfin Arce","-","2 YOKOHAMA TIRES 185/R14, WITH MOUNTING AND BALANCING","8653","8653","MOTECH","8653",""
"Vehicle not found","PTQ866","Opolinto Jr., Delfin Arce","-","175T KM CHECKUP - CHANGE OIL AND OIL FILTER,FLUSHING,REPLACE BELL CRANK,IDLER BUSHING,ALTERNATOR/AC/PS BELT,LINK SHAFT, ADJUST BRAKES, ALIGNMENT","9750","9750","MOTECH","35994",""
"Vehicle not found","PTQ866","Opolinto Jr., Delfin Arce","","OVERHAUL BRAKE CALIPER FRT,REPACK WHEEL BEARING FRT","3845","3845","MOTECH","22943",""
"Vehicle not found","PTQ866","Opolinto Jr., Delfin Arce","","","7800","","","",""
"Vehicle not found","PTQ866","Opolinto Jr., Delfin Arce","6/14/2016","FULLDOWN TRANSMISSION, REPLACE PILOT BEARING, REPLACE CLUTCH LINING, REPLACE PRESSURE PLATE, CLUTCH PORK, AND CHARGE OIL","11740","11740","MOTECH","",""
"Vehicle not found","PTQ866","Opolinto Jr., Delfin Arce","6/14/2016","REPLACE TIMING BELT, BALANCER BELT, TENSIONER BEARING","13860","13860","MOTECH","",""
"Vehicle not found","PTQ866","Opolinto Jr., Delfin Arce","7/20/2016","BATTERY REPLACEMENT 4SMF MOTOLITE ENDURO / 1 AIR FILTER / RADIATOR CAP / AUTO BULB","5980","5980","MOTECH","",""
"Vehicle not found","PLATE #","Employee","TO/DEALER SHOP","ACTIVITY/CONCERN","COST/ESTIMATE","ACTUAL COST","SERVICE DATE","INVOICE #","KM. READING"
"Vehicle not found","cn4924","Angeles, Renelito Batas","MOTECH","REPLACE BRAKE PADS,REFACE ROTOR,REPACKED WHEEL BEARING,ADJUST BRAKES,WHEEL BALANCE","18595.71","","2/7/2017","",""
"Vehicle not found","cn4924","Angeles, Renelito Batas","MOTECH","REPLACE BRAKE PADS,REFACE ROTOR,REPACKED WHEEL BEARING,ADJUST BRAKES,WHEEL BALANCE","18595.71","","2/7/2017","",""
"Vehicle not found","PLATE #","Employee","TO/DEALER SHOP","ACTIVITY/CONCERN","COST/ESTIMATE","ACTUAL COST","SERVICE DATE","INVOICE #","KM. READING"
"Vehicle not found","cn4924","Angeles, Renelito Batas","MOTECH","REPLACE BRAKE PADS,REFACE ROTOR,REPACKED WHEEL BEARING,ADJUST BRAKES,WHEEL BALANCE","18595.71","","2/7/2017","",""
